// Jest Snapshot v1, https://goo.gl/fbAQLP

exports[`Market Values Grid Renders Market Value Grid 1`] = `
<div>
  <Expandable
    icon={<ContentFilterList />}
    id="MarketValueFilters"
    originalComponent="Expandable"
    title={
      <span>
        Market Value Filters
      </span>
    }
  >
    <MarketValueFilters
      originalComponent="MarketValueFilters"
    />
  </Expandable>
  <MarketValueBulkActionsToolbar
    originalComponent="MarketValueBulkActionsToolbar"
  />
  <IntlProvider
    locale="en"
    originalComponent="IntlProvider"
  >
    <Grid
      columns={[Function]}
      filters={
        Object {
          "status": "APPROVED",
        }
      }
      id="MarketValues"
      onRowDoubleClick={undefined}
      onRowSelection={[Function]}
      options={undefined}
      originalComponent="Grid"
    />
  </IntlProvider>
  <CreditingRateMenu
    originalComponent="CreditingRateMenu"
  />
  <AddEditMarketValue
    originalComponent="AddEditMarketValue"
  />
  <ViewEditCreditingRates
    originalComponent="ViewEditCreditingRates"
  />
  <FABAddButton
    onClick={[Function]}
    originalComponent="FABAddButton"
  />
  <MarketValueBulkActionStatus
    originalComponent="MarketValueBulkActionStatus"
  />
</div>
`;

exports[`Market Values Grid Renders Market Value Grid Without FAB to add Market Value 1`] = `
<div>
  <Expandable
    icon={<ContentFilterList />}
    id="MarketValueFilters"
    originalComponent="Expandable"
    title={
      <span>
        Market Value Filters
      </span>
    }
  >
    <MarketValueFilters
      originalComponent="MarketValueFilters"
    />
  </Expandable>
  <MarketValueBulkActionsToolbar
    originalComponent="MarketValueBulkActionsToolbar"
  />
  <IntlProvider
    locale="en"
    originalComponent="IntlProvider"
  >
    <Grid
      columns={[Function]}
      filters={
        Object {
          "status": "PENDING",
        }
      }
      id="MarketValues"
      onRowDoubleClick={undefined}
      onRowSelection={[Function]}
      options={undefined}
      originalComponent="Grid"
    />
  </IntlProvider>
  <CreditingRateMenu
    originalComponent="CreditingRateMenu"
  />
  <MarketValueBulkActionStatus
    originalComponent="MarketValueBulkActionStatus"
  />
</div>
`;

exports[`Market Values Grid Renders Market Value Grid Without Market Value and Crediting Rate Dialogs  1`] = `
<div>
  <Expandable
    icon={<ContentFilterList />}
    id="MarketValueFilters"
    originalComponent="Expandable"
    title={
      <span>
        Market Value Filters
      </span>
    }
  >
    <MarketValueFilters
      originalComponent="MarketValueFilters"
    />
  </Expandable>
  <MarketValueBulkActionsToolbar
    originalComponent="MarketValueBulkActionsToolbar"
  />
  <IntlProvider
    locale="en"
    originalComponent="IntlProvider"
  >
    <Grid
      columns={[Function]}
      filters={
        Object {
          "status": "PENDING",
        }
      }
      id="MarketValues"
      onRowDoubleClick={undefined}
      onRowSelection={[Function]}
      options={undefined}
      originalComponent="Grid"
    />
  </IntlProvider>
  <CreditingRateMenu
    originalComponent="CreditingRateMenu"
  />
  <FABAddButton
    onClick={[Function]}
    originalComponent="FABAddButton"
  />
  <MarketValueBulkActionStatus
    originalComponent="MarketValueBulkActionStatus"
  />
</div>
`;
