// Jest Snapshot v1, https://goo.gl/fbAQLP

exports[`RiskScorecardEditRow should render correctly 1`] = `
<FormSection
  hidden={false}
  name="name"
  originalComponent="FormSection"
>
  <div
    className="row"
  >
    <div
      className="col-lg-3 text-right"
      style={
        Object {
          "marginTop": "15px",
        }
      }
    >
      <h1>
        label
      </h1>
    </div>
    <div
      className="col-lg-1 text-center"
    >
      <RateField
        blur={[Function]}
        className="center"
        fullWidth={true}
        name="score"
        originalComponent="RateField"
        rateFormat="0.0"
        validate={[Function]}
      />
    </div>
    <div
      className="col-lg-2"
      style={
        Object {
          "color": "rgba(0,0,0,1)",
          "marginTop": 12,
          "textAlign": "center",
        }
      }
    >
      0.0
    </div>
    <div
      className="col-lg-2"
      style={
        Object {
          "color": "rgba(0,0,0,1)",
          "marginTop": 12,
          "textAlign": "center",
        }
      }
    >
      0.0
    </div>
    <div
      className="col-lg-1"
      style={
        Object {
          "color": "rgba(0,0,0,1)",
          "marginTop": 12,
          "textAlign": "center",
        }
      }
    />
    <div
      className="col-lg-3"
    >
      <Field
        component={[Function]}
        fullWidth={true}
        multiLine={true}
        name="comments"
        originalComponent="Field"
      />
    </div>
  </div>
</FormSection>
`;

exports[`RiskScorecardEditRow should render correctly if hidden 1`] = `<span />`;
