// Jest Snapshot v1, https://goo.gl/fbAQLP

exports[`AssignContactMenuLink should render correctly 1`] = `
<a
  href=""
  onClick={[Function]}
>
   
  cell
   
</a>
`;

exports[`AssignContactsMenu should render correctly 1`] = `
<Popover
  anchorEl={undefined}
  anchorOrigin={
    Object {
      "horizontal": "right",
      "vertical": "bottom",
    }
  }
  onRequestClose={[Function]}
  open="open"
  originalComponent="Popover"
  targetOrigin={
    Object {
      "horizontal": "left",
      "vertical": "top",
    }
  }
>
  <Menu
    originalComponent="Menu"
  >
    <MenuItem
      id="ContactMenu-viewEditContactContractButton"
      leftIcon={
        <ContentLink
          color="#2196f3"
        />
      }
      onClick={[Function]}
      originalComponent="MenuItem"
      primaryText="View/Edit Contact Contract Relationship"
    />
    <hr
      style={
        Object {
          "margin": 0,
        }
      }
    />
    <MenuItem
      id="ContactMenu-viewEditContactButton"
      leftIcon={
        <EditorModeEdit
          color="#2196f3"
        />
      }
      onClick={[Function]}
      originalComponent="MenuItem"
      primaryText="View/Edit Contact Details"
    />
    <hr
      style={
        Object {
          "margin": 0,
        }
      }
    />
    <MenuItem
      id="ContactMenu-UnassignContactButton"
      leftIcon={
        <ActionDelete
          color="#f44336"
        />
      }
      onClick={[Function]}
      originalComponent="MenuItem"
      primaryText="Unassign Contact"
    />
  </Menu>
</Popover>
`;
