// Jest Snapshot v1, https://goo.gl/fbAQLP

exports[`BooleanSelectField Specs BooleanSelectField Renders Correctly 1`] = `
<Field
  component={[Function]}
  fullWidth={true}
  originalComponent="Field"
>
  <MenuItem
    originalComponent="MenuItem"
    primaryText="Yes"
    value={true}
  />
  <MenuItem
    originalComponent="MenuItem"
    primaryText="No"
    value={false}
  />
</Field>
`;
