// Jest Snapshot v1, https://goo.gl/fbAQLP

exports[`CheckboxList Specs CheckboxList Renders Correctly 1`] = `
<div
  className="row"
>
  <div
    className="col-xs-12"
  >
    <h2>
      some title
    </h2>
    <br />
  </div>
  <div
    className="col-xs-12"
  >
    <div
      className="row"
    >
      <div
        className="col-lg-4"
      >
        <Field
          component={[Function]}
          label="textA"
          name="keyA"
          originalComponent="Field"
        />
      </div>
      <div
        className="col-lg-4"
      >
        <Field
          component={[Function]}
          label="textB"
          name="keyB"
          originalComponent="Field"
        />
      </div>
    </div>
  </div>
</div>
`;

exports[`CheckboxList Specs CheckboxList Renders Correctly with more than 3 in list 1`] = `
<div
  className="row"
>
  <div
    className="col-xs-12"
  >
    <h2>
      some title
    </h2>
    <br />
  </div>
  <div
    className="col-xs-12"
  >
    <div
      className="row"
    >
      <div
        className="col-lg-4"
      >
        <Field
          component={[Function]}
          label="textA"
          name="keyA"
          originalComponent="Field"
        />
      </div>
      <div
        className="col-lg-4"
      >
        <Field
          component={[Function]}
          label="textB"
          name="keyB"
          originalComponent="Field"
        />
      </div>
      <div
        className="col-lg-4"
      >
        <Field
          component={[Function]}
          label="textC"
          name="keyC"
          originalComponent="Field"
        />
      </div>
    </div>
    <div
      className="row"
    >
      <div
        className="col-lg-4"
      >
        <Field
          component={[Function]}
          label="textD"
          name="keyD"
          originalComponent="Field"
        />
      </div>
    </div>
  </div>
</div>
`;
