// Jest Snapshot v1, https://goo.gl/fbAQLP

exports[`Crediting Rate Menu Sepcs renders Crediting Rate Menu 1`] = `
<Popover
  anchorEl={
    Object {
      "name": "link",
    }
  }
  anchorOrigin={
    Object {
      "horizontal": "right",
      "vertical": "bottom",
    }
  }
  id="CreditingRateMenu-Popover"
  onRequestClose={[Function]}
  open={true}
  originalComponent="Popover"
  targetOrigin={
    Object {
      "horizontal": "left",
      "vertical": "top",
    }
  }
>
  <Menu
    originalComponent="Menu"
  />
</Popover>
`;

exports[`Crediting Rate Menu Sepcs renders Crediting Rate Menu Link 1`] = `
<a
  href=""
  onClick={[Function]}
>
  <AppsIcon
    color="#2196f3"
    originalComponent="AppsIcon"
  />
</a>
`;
