// Jest Snapshot v1, https://goo.gl/fbAQLP

exports[`ContractContainer should render correctly 1`] = `
<div>
  <ContractToolbar
    originalComponent="ContractToolbar"
  />
  <FieldHistory
    originalComponent="FieldHistory"
  />
</div>
`;
