// Jest Snapshot v1, https://goo.gl/fbAQLP

exports[`DailyCycles Specs renders correctly 1`] = `
<div>
  <Card
    originalComponent="Card"
  >
    <Toolbar
      originalComponent="Toolbar"
      style={
        Object {
          "backgroundColor": "#f8f9fa",
          "borderTop": "solid 1px #e0e0e0",
        }
      }
    >
      <ToolbarGroup
        originalComponent="ToolbarGroup"
      />
      <ToolbarGroup
        lastChild={true}
        originalComponent="ToolbarGroup"
        style={
          Object {
            "marginRight": "50px",
          }
        }
      >
        <RaisedButton
          icon={<Unknown />}
          label="Refresh"
          onClick={[Function]}
          originalComponent="RaisedButton"
          style={
            Object {
              "margin": 8,
            }
          }
        />
        <RaisedButton
          disabled={false}
          icon={<Unknown />}
          label="Run"
          onClick={[Function]}
          originalComponent="RaisedButton"
          primary={true}
          style={
            Object {
              "margin": 8,
            }
          }
        />
      </ToolbarGroup>
    </Toolbar>
  </Card>
  <IntlProvider
    originalComponent="IntlProvider"
  >
    <Grid
      columns={
        Array [
          Object {
            "customProps": Object {
              "hidden": true,
              "isKey": true,
            },
            "field": "id",
          },
          Object {
            "customProps": Object {
              "textAlign": "left",
              "textAlignHeader": "left",
              "width": "100",
            },
            "field": "messageTypeName",
            "label": "Type",
            "sort": true,
          },
          Object {
            "customProps": Object {
              "textAlign": "left",
              "width": "150",
            },
            "field": "contractNumber",
            "label": "Contract #",
            "sort": true,
          },
          Object {
            "customProps": Object {
              "textAlign": "left",
              "textAlignHeader": "left",
            },
            "field": "message",
            "label": "Message",
            "sort": true,
          },
        ]
      }
      data={[Function]}
      id="DailyCycleMessages"
      options={Object {}}
      originalComponent="Grid"
    />
  </IntlProvider>
</div>
`;

exports[`DailyCycles Specs run button is disabled without permissions 1`] = `
<div>
  <Card
    originalComponent="Card"
  >
    <Toolbar
      originalComponent="Toolbar"
      style={
        Object {
          "backgroundColor": "#f8f9fa",
          "borderTop": "solid 1px #e0e0e0",
        }
      }
    >
      <ToolbarGroup
        originalComponent="ToolbarGroup"
      />
      <ToolbarGroup
        lastChild={true}
        originalComponent="ToolbarGroup"
        style={
          Object {
            "marginRight": "50px",
          }
        }
      >
        <RaisedButton
          icon={<Unknown />}
          label="Refresh"
          onClick={[Function]}
          originalComponent="RaisedButton"
          style={
            Object {
              "margin": 8,
            }
          }
        />
        <RaisedButton
          disabled={true}
          icon={<Unknown />}
          label="Run"
          onClick={[Function]}
          originalComponent="RaisedButton"
          primary={true}
          style={
            Object {
              "margin": 8,
            }
          }
        />
      </ToolbarGroup>
    </Toolbar>
  </Card>
  <IntlProvider
    originalComponent="IntlProvider"
  >
    <Grid
      columns={
        Array [
          Object {
            "customProps": Object {
              "hidden": true,
              "isKey": true,
            },
            "field": "id",
          },
          Object {
            "customProps": Object {
              "textAlign": "left",
              "textAlignHeader": "left",
              "width": "100",
            },
            "field": "messageTypeName",
            "label": "Type",
            "sort": true,
          },
          Object {
            "customProps": Object {
              "textAlign": "left",
              "width": "150",
            },
            "field": "contractNumber",
            "label": "Contract #",
            "sort": true,
          },
          Object {
            "customProps": Object {
              "textAlign": "left",
              "textAlignHeader": "left",
            },
            "field": "message",
            "label": "Message",
            "sort": true,
          },
        ]
      }
      data={[Function]}
      id="DailyCycleMessages"
      options={Object {}}
      originalComponent="Grid"
    />
  </IntlProvider>
</div>
`;
