// Jest Snapshot v1, https://goo.gl/fbAQLP

exports[`Add Edit Portfolio Form Renders correctly 1`] = `
<ReduxDialog
  actions={
    Array [
      <Unknown
        disabled={false}
        form="AddEditPortfolioForm"
        label="Save"
        primary={true}
        style={
          Object {
            "marginRight": 20,
          }
        }
        type="submit"
      />,
      <Unknown
        label="Cancel"
        onClick={[Function]}
      />,
    ]
  }
  autoScrollBodyContent={true}
  contentStyle={undefined}
  dialogName="portfolioInput"
  modal={true}
  originalComponent="ReduxDialog"
  title="Add Portfolio"
>
  <div>
    <form
      id="AddEditPortfolioForm"
      onSubmit="savePortfolio"
    >
      <Card
        originalComponent="Card"
      >
        <div
          style={
            Object {
              "padding": "25px",
            }
          }
        >
          <div
            className="row"
          >
            <div
              className="col-lg-12"
            >
              <Field
                component={[Function]}
                floatingLabelText="* Portfolio Name"
                name="portfolioName"
                originalComponent="Field"
                type="text"
                validate={[Function]}
              />
            </div>
          </div>
          <div
            className="row"
          >
            <div
              className="col-lg-12"
            >
              <ManagersFormField
                disabled={undefined}
                floatingLabelText="* Manager"
                name="portfolioManagerId"
                originalComponent="ManagersFormField"
              />
            </div>
          </div>
        </div>
      </Card>
    </form>
  </div>
</ReduxDialog>
`;

exports[`Add Edit Portfolio Form should disable save correctly 1`] = `
<ReduxDialog
  actions={
    Array [
      <Unknown
        disabled={true}
        form="AddEditPortfolioForm"
        label="Save"
        primary={true}
        style={
          Object {
            "marginRight": 20,
          }
        }
        type="submit"
      />,
      <Unknown
        label="Cancel"
        onClick={[Function]}
      />,
    ]
  }
  autoScrollBodyContent={true}
  contentStyle={undefined}
  dialogName="portfolioInput"
  modal={true}
  originalComponent="ReduxDialog"
  title="Add Portfolio"
>
  <div>
    <form
      id="AddEditPortfolioForm"
      onSubmit={undefined}
    >
      <Card
        originalComponent="Card"
      >
        <div
          style={
            Object {
              "padding": "25px",
            }
          }
        >
          <div
            className="row"
          >
            <div
              className="col-lg-12"
            >
              <Field
                component={[Function]}
                floatingLabelText="* Portfolio Name"
                name="portfolioName"
                originalComponent="Field"
                type="text"
                validate={[Function]}
              />
            </div>
          </div>
          <div
            className="row"
          >
            <div
              className="col-lg-12"
            >
              <ManagersFormField
                disabled={undefined}
                floatingLabelText="* Manager"
                name="portfolioManagerId"
                originalComponent="ManagersFormField"
              />
            </div>
          </div>
        </div>
      </Card>
    </form>
  </div>
</ReduxDialog>
`;

exports[`Add Edit Portfolio Form should render title correctly when portfolioId is set 1`] = `
<ReduxDialog
  actions={
    Array [
      <Unknown
        disabled={true}
        form="AddEditPortfolioForm"
        label="Save"
        primary={true}
        style={
          Object {
            "marginRight": 20,
          }
        }
        type="submit"
      />,
      <Unknown
        label="Cancel"
        onClick={[Function]}
      />,
    ]
  }
  autoScrollBodyContent={true}
  contentStyle={undefined}
  dialogName="portfolioInput"
  modal={true}
  originalComponent="ReduxDialog"
  title="Edit Portfolio"
>
  <div>
    <form
      id="AddEditPortfolioForm"
      onSubmit="savePortfolio"
    >
      <Card
        originalComponent="Card"
      >
        <div
          style={
            Object {
              "padding": "25px",
            }
          }
        >
          <div
            className="row"
          >
            <div
              className="col-lg-12"
            >
              <Field
                component={[Function]}
                floatingLabelText="* Portfolio Name"
                name="portfolioName"
                originalComponent="Field"
                type="text"
                validate={[Function]}
              />
            </div>
          </div>
          <div
            className="row"
          >
            <div
              className="col-lg-12"
            >
              <ManagersFormField
                disabled={123}
                floatingLabelText="* Manager"
                name="portfolioManagerId"
                originalComponent="ManagersFormField"
              />
            </div>
          </div>
        </div>
      </Card>
    </form>
  </div>
</ReduxDialog>
`;
