// Jest Snapshot v1, https://goo.gl/fbAQLP

exports[`ChipPortfolioArray should not render correctly bad data 1`] = `
<div
  style={
    Object {
      "display": "flex",
      "flexWrap": "wrap",
    }
  }
>
  <Chip
    originalComponent="Chip"
  >
    undefined  %undefined
  </Chip>
</div>
`;

exports[`ChipPortfolioArray should render correctly 1`] = `
<div
  style={
    Object {
      "display": "flex",
      "flexWrap": "wrap",
    }
  }
>
  <Chip
    originalComponent="Chip"
  >
    ABC  %1
  </Chip>
  <Chip
    originalComponent="Chip"
  >
    ABC2  %2
  </Chip>
  <Chip
    originalComponent="Chip"
  >
    ABC3  %3
  </Chip>
  <Chip
    originalComponent="Chip"
  >
    ABC4  %4
  </Chip>
  <Chip
    originalComponent="Chip"
  >
    AB5C  %5
  </Chip>
  <Chip
    originalComponent="Chip"
  >
    ABC6  %6
  </Chip>
  <Chip
    originalComponent="Chip"
  >
    ABC7  %7
  </Chip>
  <Chip
    originalComponent="Chip"
  >
    ABC8  %8
  </Chip>
</div>
`;
