// Jest Snapshot v1, https://goo.gl/fbAQLP

exports[`Reasons Columns should render Menu Link correctly 1`] = `
<MultiActionMenuLink
  cell="cell"
  dialogName="reasonMenu"
  originalComponent="MultiActionMenuLink"
  row="row"
  selections={[Function]}
/>
`;
