// Jest Snapshot v1, https://goo.gl/fbAQLP

exports[`Monthly Fees should render correctly 1`] = `
<form
  id="MonthlyFeesFilterForm"
>
  <Card
    originalComponent="Card"
  >
    <Toolbar
      originalComponent="Toolbar"
      style={
        Object {
          "backgroundColor": "#f8f9fa",
          "borderTop": "solid 1px #e0e0e0",
          "height": "75px",
        }
      }
    >
      <ToolbarGroup
        originalComponent="ToolbarGroup"
      >
        <YearFormField
          floatingLabelText="Filter by Year"
          name="yearFilter"
          onChange={[Function]}
          originalComponent="YearFormField"
          style={
            Object {
              "marginRight": "5px",
            }
          }
        />
        <MonthFormField
          floatingLabelText="Filter by Month"
          name="monthFilter"
          onChange={[Function]}
          originalComponent="MonthFormField"
          style={
            Object {
              "marginRight": "5px",
            }
          }
        />
        <DayFormField
          floatingLabelText="Filter by Day"
          month={2}
          name="dayFilter"
          onChange={undefined}
          originalComponent="DayFormField"
          year={2017}
        />
      </ToolbarGroup>
      <ToolbarGroup
        originalComponent="ToolbarGroup"
      >
        <RaisedButton
          label="Clear Filter"
          onClick={[Function]}
          originalComponent="RaisedButton"
          style={
            Object {
              "margin": "20px",
            }
          }
        />
      </ToolbarGroup>
    </Toolbar>
  </Card>
</form>
`;
