// Jest Snapshot v1, https://goo.gl/fbAQLP

exports[`Add Edit Transactions Form Disables Modifications for Existing Deposit Transaction effective last month 1`] = `
<ReduxDialog
  actions={
    Array [
      <RaisedButton
        disabled={false}
        form="AddEditTransactionForm"
        fullWidth={false}
        label="Save"
        labelPosition="after"
        primary={true}
        secondary={false}
        style={
          Object {
            "marginRight": 20,
          }
        }
        type="submit"
      />,
    ]
  }
  autoScrollBodyContent={true}
  cancelButton={true}
  contentStyle={
    Object {
      "maxWidth": "none",
      "width": "70%",
    }
  }
  dialogName="AddEditTransaction"
  modal={true}
  onCancel="clearTransactionFunction"
  originalComponent="ReduxDialog"
  title="Edit Deposit Transaction"
>
  <form
    id="AddEditTransactionForm"
    onSubmit="saveTransaction"
  >
    <div
      className="row"
    >
      <div
        className="col-lg-7"
      >
        <ContractPicker
          disabled={false}
          filterContract={[Function]}
          floatingLabelText="* Contract"
          name="contractId"
          onChange={[Function]}
          originalComponent="ContractPicker"
          validate={[Function]}
        />
      </div>
      <div
        className="col-lg-5"
      >
        <Field
          autoOk={true}
          component={[Function]}
          floatingLabelText="* Effective Date"
          format={[Function]}
          formatDate={[Function]}
          fullWidth={true}
          minDate={2018-07-01T05:00:00.000Z}
          name="effectiveDate"
          onChange={[Function]}
          originalComponent="Field"
          validate={[Function]}
        />
      </div>
    </div>
    <div
      className="row"
    >
      <div
        className="col-lg-7"
      >
        <DEPOSIT_DETAILS
          name="detail"
          originalComponent="DEPOSIT_DETAILS"
          validate={[Function]}
        />
      </div>
      <div
        className="col-lg-5"
      >
        <NumberField
          acceptNegativeNumber={false}
          blur={[Function]}
          disabled={false}
          floatingLabelText="* Amount"
          fullWidth={true}
          name="amount"
          originalComponent="NumberField"
          validate={[Function]}
        />
      </div>
    </div>
    <div
      className="row"
    >
      <div
        className="col-lg-12"
      >
        <Field
          component={[Function]}
          floatingLabelText="Comments (Max: 255 Chars)"
          fullWidth={true}
          multiLine={true}
          name="comments"
          originalComponent="Field"
          rowsMax={3}
          textareaStyle={
            Object {
              "fontSize": "14px",
            }
          }
          validate={[Function]}
        />
      </div>
    </div>
  </form>
  <WatchListAlert
    originalComponent="WatchListAlert"
  />
  <ConfirmationAlert
    dialogName="withdrawalLimitWarning"
    originalComponent="ConfirmationAlert"
  />
</ReduxDialog>
`;

exports[`Add Edit Transactions Form Disables Modifications for Termination Transaction 1`] = `
<ReduxDialog
  actions={
    Array [
      <RaisedButton
        disabled={false}
        form="AddEditTransactionForm"
        fullWidth={false}
        label="Save"
        labelPosition="after"
        primary={true}
        secondary={false}
        style={
          Object {
            "marginRight": 20,
          }
        }
        type="submit"
      />,
    ]
  }
  autoScrollBodyContent={true}
  cancelButton={true}
  contentStyle={
    Object {
      "maxWidth": "none",
      "width": "70%",
    }
  }
  dialogName="AddEditTransaction"
  modal={true}
  onCancel="clearTransactionFunction"
  originalComponent="ReduxDialog"
  title="Edit Termination Transaction"
>
  <form
    id="AddEditTransactionForm"
    onSubmit="saveTransaction"
  >
    <div
      className="row"
    >
      <div
        className="col-lg-7"
      >
        <ContractPicker
          disabled={100}
          filterContract={[Function]}
          floatingLabelText="* Contract"
          name="contractId"
          onChange={[Function]}
          originalComponent="ContractPicker"
          validate={[Function]}
        />
      </div>
      <div
        className="col-lg-5"
      >
        <Field
          autoOk={true}
          component={[Function]}
          floatingLabelText="* Effective Date"
          format={[Function]}
          formatDate={[Function]}
          fullWidth={true}
          minDate={2018-07-01T05:00:00.000Z}
          name="effectiveDate"
          onChange={[Function]}
          originalComponent="Field"
          validate={[Function]}
        />
      </div>
    </div>
    <div
      className="row"
    >
      <div
        className="col-lg-7"
      >
        <WITHDRAWAL_DETAILS
          name="detail"
          originalComponent="WITHDRAWAL_DETAILS"
          validate={[Function]}
        />
      </div>
      <div
        className="col-lg-5"
      >
        <NumberField
          acceptNegativeNumber={false}
          blur={[Function]}
          disabled={true}
          floatingLabelText="* Amount"
          fullWidth={true}
          name="amount"
          originalComponent="NumberField"
          validate={[Function]}
        />
      </div>
    </div>
    <div
      className="row"
    >
      <div
        className="col-lg-7"
      >
        <Field
          autoOk={true}
          component={[Function]}
          floatingLabelText="* Maturity Date"
          format={[Function]}
          formatDate={[Function]}
          fullWidth={true}
          name="statedMaturityDate"
          originalComponent="Field"
          validate={[Function]}
        />
      </div>
    </div>
    <div
      className="row"
    >
      <div
        className="col-lg-12"
      >
        <Field
          component={[Function]}
          floatingLabelText="Comments (Max: 255 Chars)"
          fullWidth={true}
          multiLine={true}
          name="comments"
          originalComponent="Field"
          rowsMax={3}
          textareaStyle={
            Object {
              "fontSize": "14px",
            }
          }
          validate={[Function]}
        />
      </div>
    </div>
  </form>
  <WatchListAlert
    originalComponent="WatchListAlert"
  />
  <ConfirmationAlert
    dialogName="withdrawalLimitWarning"
    originalComponent="ConfirmationAlert"
  />
</ReduxDialog>
`;

exports[`Add Edit Transactions Form Renders Adjustment date for Adjustment Transaction 1`] = `
<ReduxDialog
  actions={
    Array [
      <RaisedButton
        disabled={false}
        form="AddEditTransactionForm"
        fullWidth={false}
        label="Save"
        labelPosition="after"
        primary={true}
        secondary={false}
        style={
          Object {
            "marginRight": 20,
          }
        }
        type="submit"
      />,
    ]
  }
  autoScrollBodyContent={true}
  cancelButton={true}
  contentStyle={
    Object {
      "maxWidth": "none",
      "width": "70%",
    }
  }
  dialogName="AddEditTransaction"
  modal={true}
  onCancel="clearTransactionFunction"
  originalComponent="ReduxDialog"
  title="Add Adjustment Transaction"
>
  <form
    id="AddEditTransactionForm"
    onSubmit="saveTransaction"
  >
    <div
      className="row"
    >
      <div
        className="col-lg-7"
      >
        <ContractPicker
          disabled={false}
          filterContract={[Function]}
          floatingLabelText="* Contract"
          name="contractId"
          onChange={[Function]}
          originalComponent="ContractPicker"
          validate={[Function]}
        />
      </div>
      <div
        className="col-lg-5"
      >
        <Field
          autoOk={true}
          component={[Function]}
          floatingLabelText="* Effective Date"
          format={[Function]}
          formatDate={[Function]}
          fullWidth={true}
          minDate={2018-07-01T05:00:00.000Z}
          name="effectiveDate"
          onChange={[Function]}
          originalComponent="Field"
          validate={[Function]}
        />
      </div>
    </div>
    <div
      className="row"
    >
      <div
        className="col-lg-7"
      >
        <ADJUSTMENT_DETAILS
          name="detail"
          originalComponent="ADJUSTMENT_DETAILS"
          validate={[Function]}
        />
      </div>
      <div
        className="col-lg-5"
      >
        <NumberField
          acceptNegativeNumber={true}
          blur={[Function]}
          disabled={false}
          floatingLabelText="* Amount"
          fullWidth={true}
          name="amount"
          originalComponent="NumberField"
          validate={[Function]}
        />
      </div>
    </div>
    <div
      className="row"
    >
      <div
        className="col-lg-7"
      >
        <Field
          autoOk={true}
          component={[Function]}
          floatingLabelText="* Adjustment Date"
          format={[Function]}
          formatDate={[Function]}
          fullWidth={true}
          name="adjustmentDate"
          originalComponent="Field"
          validate={[Function]}
        />
      </div>
    </div>
    <div
      className="row"
    >
      <div
        className="col-lg-12"
      >
        <Field
          component={[Function]}
          floatingLabelText="Comments (Max: 255 Chars)"
          fullWidth={true}
          multiLine={true}
          name="comments"
          originalComponent="Field"
          rowsMax={3}
          textareaStyle={
            Object {
              "fontSize": "14px",
            }
          }
          validate={[Function]}
        />
      </div>
    </div>
  </form>
  <WatchListAlert
    originalComponent="WatchListAlert"
  />
  <ConfirmationAlert
    dialogName="withdrawalLimitWarning"
    originalComponent="ConfirmationAlert"
  />
</ReduxDialog>
`;

exports[`Add Edit Transactions Form Renders Existing Deposit Transaction 1`] = `
<ReduxDialog
  actions={
    Array [
      <RaisedButton
        disabled={false}
        form="AddEditTransactionForm"
        fullWidth={false}
        label="Save"
        labelPosition="after"
        primary={true}
        secondary={false}
        style={
          Object {
            "marginRight": 20,
          }
        }
        type="submit"
      />,
    ]
  }
  autoScrollBodyContent={true}
  cancelButton={true}
  contentStyle={
    Object {
      "maxWidth": "none",
      "width": "70%",
    }
  }
  dialogName="AddEditTransaction"
  modal={true}
  onCancel="clearTransactionFunction"
  originalComponent="ReduxDialog"
  title="Edit Deposit Transaction"
>
  <form
    id="AddEditTransactionForm"
    onSubmit="saveTransaction"
  >
    <div
      className="row"
    >
      <div
        className="col-lg-7"
      >
        <ContractPicker
          disabled={false}
          filterContract={[Function]}
          floatingLabelText="* Contract"
          name="contractId"
          onChange={[Function]}
          originalComponent="ContractPicker"
          validate={[Function]}
        />
      </div>
      <div
        className="col-lg-5"
      >
        <Field
          autoOk={true}
          component={[Function]}
          floatingLabelText="* Effective Date"
          format={[Function]}
          formatDate={[Function]}
          fullWidth={true}
          minDate={2018-07-01T05:00:00.000Z}
          name="effectiveDate"
          onChange={[Function]}
          originalComponent="Field"
          validate={[Function]}
        />
      </div>
    </div>
    <div
      className="row"
    >
      <div
        className="col-lg-7"
      >
        <DEPOSIT_DETAILS
          name="detail"
          originalComponent="DEPOSIT_DETAILS"
          validate={[Function]}
        />
      </div>
      <div
        className="col-lg-5"
      >
        <NumberField
          acceptNegativeNumber={false}
          blur={[Function]}
          disabled={false}
          floatingLabelText="* Amount"
          fullWidth={true}
          name="amount"
          originalComponent="NumberField"
          validate={[Function]}
        />
      </div>
    </div>
    <div
      className="row"
    >
      <div
        className="col-lg-12"
      >
        <Field
          component={[Function]}
          floatingLabelText="Comments (Max: 255 Chars)"
          fullWidth={true}
          multiLine={true}
          name="comments"
          originalComponent="Field"
          rowsMax={3}
          textareaStyle={
            Object {
              "fontSize": "14px",
            }
          }
          validate={[Function]}
        />
      </div>
    </div>
  </form>
  <WatchListAlert
    originalComponent="WatchListAlert"
  />
  <ConfirmationAlert
    dialogName="withdrawalLimitWarning"
    originalComponent="ConfirmationAlert"
  />
</ReduxDialog>
`;

exports[`Add Edit Transactions Form Renders Fee Adjustment Transaction 1`] = `
<ReduxDialog
  actions={
    Array [
      <RaisedButton
        disabled={true}
        form="AddEditTransactionForm"
        fullWidth={false}
        label="Save"
        labelPosition="after"
        primary={true}
        secondary={false}
        style={
          Object {
            "marginRight": 20,
          }
        }
        type="submit"
      />,
    ]
  }
  autoScrollBodyContent={true}
  cancelButton={true}
  contentStyle={
    Object {
      "maxWidth": "none",
      "width": "70%",
    }
  }
  dialogName="AddEditTransaction"
  modal={true}
  onCancel="clearTransactionFunction"
  originalComponent="ReduxDialog"
  title="Edit Fee Adjustment Transaction"
>
  <form
    id="AddEditTransactionForm"
    onSubmit="saveTransaction"
  >
    <div
      className="row"
    >
      <div
        className="col-lg-7"
      >
        <ContractPicker
          disabled={false}
          filterContract={[Function]}
          floatingLabelText="* Contract"
          name="contractId"
          onChange={[Function]}
          originalComponent="ContractPicker"
          validate={[Function]}
        />
      </div>
      <div
        className="col-lg-5"
      >
        <Field
          autoOk={true}
          component={[Function]}
          floatingLabelText="* Effective Date"
          format={[Function]}
          formatDate={[Function]}
          fullWidth={true}
          minDate={2018-07-01T05:00:00.000Z}
          name="effectiveDate"
          onChange={[Function]}
          originalComponent="Field"
          validate={[Function]}
        />
      </div>
    </div>
    <div
      className="row"
    >
      <div
        className="col-lg-5"
      >
        <NumberField
          acceptNegativeNumber={false}
          blur={[Function]}
          disabled={true}
          floatingLabelText="* Amount"
          fullWidth={true}
          name="amount"
          originalComponent="NumberField"
          validate={[Function]}
        />
      </div>
    </div>
    <div
      className="row"
    >
      <div
        className="col-lg-12"
      >
        <FeeDistributionGrid
          originalComponent="FeeDistributionGrid"
        />
        <span
          style={
            Object {
              "display": "none",
            }
          }
        >
           
          <Field
            component={[Function]}
            name="feeDistributionTotal"
            originalComponent="Field"
          />
           
        </span>
      </div>
    </div>
    <div
      className="row"
    >
      <div
        className="col-lg-12"
      >
        <Field
          component={[Function]}
          floatingLabelText="Comments (Max: 255 Chars)"
          fullWidth={true}
          multiLine={true}
          name="comments"
          originalComponent="Field"
          rowsMax={3}
          textareaStyle={
            Object {
              "fontSize": "14px",
            }
          }
          validate={[Function]}
        />
      </div>
    </div>
  </form>
  <WatchListAlert
    originalComponent="WatchListAlert"
  />
  <ConfirmationAlert
    dialogName="withdrawalLimitWarning"
    originalComponent="ConfirmationAlert"
  />
</ReduxDialog>
`;

exports[`Add Edit Transactions Form Renders Fee Transaction 1`] = `
<ReduxDialog
  actions={
    Array [
      <RaisedButton
        disabled={true}
        form="AddEditTransactionForm"
        fullWidth={false}
        label="Save"
        labelPosition="after"
        primary={true}
        secondary={false}
        style={
          Object {
            "marginRight": 20,
          }
        }
        type="submit"
      />,
    ]
  }
  autoScrollBodyContent={true}
  cancelButton={true}
  contentStyle={
    Object {
      "maxWidth": "none",
      "width": "70%",
    }
  }
  dialogName="AddEditTransaction"
  modal={true}
  onCancel="clearTransactionFunction"
  originalComponent="ReduxDialog"
  title="Edit Fee Receipt Transaction"
>
  <form
    id="AddEditTransactionForm"
    onSubmit="saveTransaction"
  >
    <div
      className="row"
    >
      <div
        className="col-lg-7"
      >
        <ContractPicker
          disabled={false}
          filterContract={[Function]}
          floatingLabelText="* Contract"
          name="contractId"
          onChange={[Function]}
          originalComponent="ContractPicker"
          validate={[Function]}
        />
      </div>
      <div
        className="col-lg-5"
      >
        <Field
          autoOk={true}
          component={[Function]}
          floatingLabelText="* Effective Date"
          format={[Function]}
          formatDate={[Function]}
          fullWidth={true}
          minDate={2018-07-01T05:00:00.000Z}
          name="effectiveDate"
          onChange={[Function]}
          originalComponent="Field"
          validate={[Function]}
        />
      </div>
    </div>
    <div
      className="row"
    >
      <div
        className="col-lg-5"
      >
        <NumberField
          acceptNegativeNumber={false}
          blur={[Function]}
          disabled={false}
          floatingLabelText="* Amount"
          fullWidth={true}
          name="amount"
          originalComponent="NumberField"
          validate={[Function]}
        />
      </div>
    </div>
    <div
      className="row"
    >
      <div
        className="col-lg-12"
      >
        <FeeDistributionGrid
          originalComponent="FeeDistributionGrid"
        />
        <span
          style={
            Object {
              "display": "none",
            }
          }
        >
           
          <Field
            component={[Function]}
            name="feeDistributionTotal"
            originalComponent="Field"
          />
           
        </span>
      </div>
    </div>
    <div
      className="row"
    >
      <div
        className="col-lg-12"
      >
        <Field
          component={[Function]}
          floatingLabelText="Comments (Max: 255 Chars)"
          fullWidth={true}
          multiLine={true}
          name="comments"
          originalComponent="Field"
          rowsMax={3}
          textareaStyle={
            Object {
              "fontSize": "14px",
            }
          }
          validate={[Function]}
        />
      </div>
    </div>
  </form>
  <WatchListAlert
    originalComponent="WatchListAlert"
  />
  <ConfirmationAlert
    dialogName="withdrawalLimitWarning"
    originalComponent="ConfirmationAlert"
  />
</ReduxDialog>
`;

exports[`Add Edit Transactions Form Renders New Deposit Transaction 1`] = `
<ReduxDialog
  actions={
    Array [
      <RaisedButton
        disabled={false}
        form="AddEditTransactionForm"
        fullWidth={false}
        label="Save"
        labelPosition="after"
        primary={true}
        secondary={false}
        style={
          Object {
            "marginRight": 20,
          }
        }
        type="submit"
      />,
    ]
  }
  autoScrollBodyContent={true}
  cancelButton={true}
  contentStyle={
    Object {
      "maxWidth": "none",
      "width": "70%",
    }
  }
  dialogName="AddEditTransaction"
  modal={true}
  onCancel="clearTransactionFunction"
  originalComponent="ReduxDialog"
  title="Add Deposit Transaction"
>
  <form
    id="AddEditTransactionForm"
    onSubmit="saveTransaction"
  >
    <div
      className="row"
    >
      <div
        className="col-lg-7"
      >
        <ContractPicker
          disabled={false}
          filterContract={[Function]}
          floatingLabelText="* Contract"
          name="contractId"
          onChange={[Function]}
          originalComponent="ContractPicker"
          validate={[Function]}
        />
      </div>
      <div
        className="col-lg-5"
      >
        <Field
          autoOk={true}
          component={[Function]}
          floatingLabelText="* Effective Date"
          format={[Function]}
          formatDate={[Function]}
          fullWidth={true}
          minDate={2018-07-01T05:00:00.000Z}
          name="effectiveDate"
          onChange={[Function]}
          originalComponent="Field"
          validate={[Function]}
        />
      </div>
    </div>
    <div
      className="row"
    >
      <div
        className="col-lg-7"
      >
        <DEPOSIT_DETAILS
          name="detail"
          originalComponent="DEPOSIT_DETAILS"
          validate={[Function]}
        />
      </div>
      <div
        className="col-lg-5"
      >
        <NumberField
          acceptNegativeNumber={false}
          blur={[Function]}
          disabled={false}
          floatingLabelText="* Amount"
          fullWidth={true}
          name="amount"
          originalComponent="NumberField"
          validate={[Function]}
        />
      </div>
    </div>
    <div
      className="row"
    >
      <div
        className="col-lg-12"
      >
        <Field
          component={[Function]}
          floatingLabelText="Comments (Max: 255 Chars)"
          fullWidth={true}
          multiLine={true}
          name="comments"
          originalComponent="Field"
          rowsMax={3}
          textareaStyle={
            Object {
              "fontSize": "14px",
            }
          }
          validate={[Function]}
        />
      </div>
    </div>
  </form>
  <WatchListAlert
    originalComponent="WatchListAlert"
  />
  <ConfirmationAlert
    dialogName="withdrawalLimitWarning"
    originalComponent="ConfirmationAlert"
  />
</ReduxDialog>
`;

exports[`Add Edit Transactions Form Renders correctly when permissions are denied 1`] = `
<ReduxDialog
  actions={
    Array [
      <RaisedButton
        disabled={true}
        form="AddEditTransactionForm"
        fullWidth={false}
        label="Save"
        labelPosition="after"
        primary={true}
        secondary={false}
        style={
          Object {
            "marginRight": 20,
          }
        }
        type="submit"
      />,
    ]
  }
  autoScrollBodyContent={true}
  cancelButton={true}
  contentStyle={
    Object {
      "maxWidth": "none",
      "width": "70%",
    }
  }
  dialogName="AddEditTransaction"
  modal={true}
  onCancel="clearTransactionFunction"
  originalComponent="ReduxDialog"
  title="Add Deposit Transaction"
>
  <form
    id="AddEditTransactionForm"
    onSubmit="saveTransaction"
  >
    <div
      className="row"
    >
      <div
        className="col-lg-7"
      >
        <ContractPicker
          disabled={false}
          filterContract={[Function]}
          floatingLabelText="* Contract"
          name="contractId"
          onChange={[Function]}
          originalComponent="ContractPicker"
          validate={[Function]}
        />
      </div>
      <div
        className="col-lg-5"
      >
        <Field
          autoOk={true}
          component={[Function]}
          floatingLabelText="* Effective Date"
          format={[Function]}
          formatDate={[Function]}
          fullWidth={true}
          minDate={2018-07-01T05:00:00.000Z}
          name="effectiveDate"
          onChange={[Function]}
          originalComponent="Field"
          validate={[Function]}
        />
      </div>
    </div>
    <div
      className="row"
    >
      <div
        className="col-lg-7"
      >
        <DEPOSIT_DETAILS
          name="detail"
          originalComponent="DEPOSIT_DETAILS"
          validate={[Function]}
        />
      </div>
      <div
        className="col-lg-5"
      >
        <NumberField
          acceptNegativeNumber={false}
          blur={[Function]}
          disabled={false}
          floatingLabelText="* Amount"
          fullWidth={true}
          name="amount"
          originalComponent="NumberField"
          validate={[Function]}
        />
      </div>
    </div>
    <div
      className="row"
    >
      <div
        className="col-lg-12"
      >
        <Field
          component={[Function]}
          floatingLabelText="Comments (Max: 255 Chars)"
          fullWidth={true}
          multiLine={true}
          name="comments"
          originalComponent="Field"
          rowsMax={3}
          textareaStyle={
            Object {
              "fontSize": "14px",
            }
          }
          validate={[Function]}
        />
      </div>
    </div>
  </form>
  <WatchListAlert
    originalComponent="WatchListAlert"
  />
  <ConfirmationAlert
    dialogName="withdrawalLimitWarning"
    originalComponent="ConfirmationAlert"
  />
</ReduxDialog>
`;
