// Jest Snapshot v1, https://goo.gl/fbAQLP

exports[`AssignUnassignContractsColumns should match the snapshot 1`] = `
"[
  {
    \\"field\\": \\"contractId\\",
    \\"customProps\\": {
      \\"hidden\\": true,
      \\"isKey\\": true
    }
  },
  {
    \\"field\\": \\"contractNumber\\",
    \\"sort\\": true,
    \\"label\\": \\"Contract #\\",
    \\"customProps\\": {
      \\"textAlign\\": \\"center\\",
      \\"paddingRight\\": 20,
      \\"width\\": \\"18%\\"
    }
  },
  {
    \\"field\\": \\"shortPlanName\\",
    \\"sort\\": true,
    \\"label\\": \\"Short Plan Name\\",
    \\"customProps\\": {
      \\"textAlign\\": \\"center\\",
      \\"paddingRight\\": 20,
      \\"width\\": \\"18%\\"
    }
  },
  {
    \\"field\\": \\"status\\",
    \\"sort\\": true,
    \\"label\\": \\"Status\\",
    \\"customProps\\": {
      \\"textAlign\\": \\"center\\",
      \\"paddingRight\\": 20,
      \\"width\\": \\"18%\\"
    }
  },
  {
    \\"field\\": \\"contactCompanyNames\\",
    \\"sort\\": true,
    \\"label\\": \\"Contact Companies\\",
    \\"customProps\\": {
      \\"textAlign\\": \\"center\\",
      \\"paddingRight\\": 20,
      \\"width\\": \\"46%\\"
    }
  }
]"
`;
